{
  "stop_word_single": [
    "fka:","engage",
    "can",
    "working",
    "down",
    "active",
    "on",
    "in",
    "be",
    "to",
    "export",
    "copy",
    "downlaod",
    "get",
    "standard",
    "between",
    "betweens",
    "process",
    "mmrl",
    "wis",
    "ihc",
    "llc",
    "hosp'l",
    "west",
    "hosp",
    "depot",
    "east",
    "compy",
    "xii",
    "and",
    "central",
    "tulsa",
    "phy",
    "sys:",
    "fort",
    "sacred",
    "black",
    "weeks",
    "week",
    "weed",
    "weeds",
    "sales",
    "day",
    "days",
    "month",
    "months",
    "quarter",
    "quarters",
    "hour",
    "hours",
    "weekly",
    "monthly",
    "daily",
    "my",
    "sale",
    "share",
    "shared",
    "shares",
    "yoy",
    "pop",
    "health",
    "18th",
    "run",
    "unit",
    "units",
    "now",
    "today",
    "purchase",
    "purchased",
    "high",
    "low",
    "higher",
    "lower",
    "for",
    "mark",
    "lee",
    "cities",
    "hospita",
    "cente",
    "chi",
    "cln",
    "mint",
    "fuji",
    "general",
    "delete",
    "car",
    "capt",
    "hope",
    "ball",
    "suite",
    "geo",
    "cre",
    "gil",
    "grass",
    "states",
    "state",
    "total",
    "retail",
    "retails",
    "cross",
    "city",
    "self",
    "inc",
    "the",
    "partners",
    "healthcare",
    "children's",
    "corp",
    "agency",
    "ventura",
    "falls",
    "san",
    "ohio",
    "mary",
    "lake",
    "university",
    "america",
    "south",
    "account",
    "accounts",
    "case",
    "cases",
    "district",
    "forest",
    "mount",
    "all",
    "community",
    "communities",
    "distribution",
    "total",
    "greater",
    "lower",
    "higher",
    "less",
    "lesser",
    "distribute",
    "great",
    "count",
    "many",
    "more",
    "most",
    "mound",
    "min",
    "minimum",
    "maximum",
    "max",
    "wow",
    "without",
    "good",
    "lowest",
    "next",
    "greatest",
    "among",
    "minimal",
    "this",
    "yesterday",
    "year",
    "current",
    "top",
    "little",
    "large",
    "last",
    "y/y",
    "few",
    "small",
    "with",
    "q2",
    "q/q",
    "excluding",
    "tomorrow",
    "q4",
    "exclude",
    "qoq",
    "years",
    "m/m",
    "yearly",
    "past",
    "upcoming",
    "q1",
    "much",
    "big",
    "like",
    "fiscal",
    "from",
    "bottom",
    "least",
    "previous",
    "larger",
    "horrible",
    "dod",
    "seasonal",
    "q3",
    "bad",
    "annums",
    "except",
    "popular",
    "coming",
    "awesome",
    "d/d",
    "including",
    "annum",
    "mom",
    "show",
    "sinai",
    "live",
    "simai",
    "best",
    "chantel",
    "open",
    "list",
    "term",
    "payment",
    "payments",
    "contract",
    "contracts",
    "gas",
    "Check",
    "other",
    "was",
    "mobile",
    "court",
    "approved",
    "thera",
    "lumber",
    "ther",
    "value",
    "holding",
    "terms",
    "tero",
    "fur",
    "fox",
    "NOR",
    "FER",
    "FÜR",
    "FOU",
    "COR",
    "FOY",
    "FAR",
    "life",
    "lime",
    "line",
    "mike",
    "fike",
    "pike",
    "luke",
    "local",
    "after",
    "before",
    "made",
    "will",
    "country",
    "Afghanistan",
    "Albania",
    "Algeria",
    "America",
    "Andorra",
    "Angola",
    "Antigua",
    "Argentina",
    "Armenia",
    "Australia",
    "Austria",
    "Azerbaijan",
    "Bahamas",
    "Bahrain",
    "Bangladesh",
    "Barbados",
    "Belarus",
    "Belgium",
    "Belize",
    "Benin",
    "Bhutan",
    "Bissau",
    "Bolivia",
    "Bosnia",
    "Botswana",
    "Brazil",
    "British",
    "Brunei",
    "Bulgaria",
    "Burkina",
    "Burma",
    "Burundi",
    "Cambodia",
    "Cameroon",
    "Canada",
    "Cape Verde",
    "Central African Republic",
    "Chad",
    "Chile",
    "China",
    "Colombia",
    "Comoros",
    "Congo",
    "Costa Rica",
    "country debt",
    "Croatia",
    "Cuba",
    "Cyprus",
    "Czech",
    "Denmark",
    "Djibouti",
    "Dominica",
    "East Timor",
    "Ecuador",
    "Egypt",
    "El Salvador",
    "Emirate",
    "England",
    "Eritrea",
    "Estonia",
    "Ethiopia",
    "Fiji",
    "Finland",
    "France",
    "Gabon",
    "Gambia",
    "Georgia",
    "Germany",
    "Ghana",
    "Great Britain",
    "Greece",
    "Grenada",
    "Grenadines",
    "Guatemala",
    "Guinea",
    "Guyana",
    "Haiti",
    "Herzegovina",
    "Honduras",
    "Hungary",
    "Iceland",
    "in usa",
    "India",
    "Indonesia",
    "Iran",
    "Iraq",
    "Ireland",
    "Israel",
    "Italy",
    "Ivory Coast",
    "Jamaica",
    "Japan",
    "Jordan",
    "Kazakhstan",
    "Kenya",
    "Kiribati",
    "Korea",
    "Kosovo",
    "Kuwait",
    "Kyrgyzstan",
    "Laos",
    "Latvia",
    "Lebanon",
    "Lesotho",
    "Liberia",
    "Libya",
    "Liechtenstein",
    "Lithuania",
    "Luxembourg",
    "Macedonia",
    "Madagascar",
    "Malawi",
    "Malaysia",
    "Maldives",
    "Mali",
    "Malta",
    "Marshall",
    "Mauritania",
    "Mauritius",
    "Mexico",
    "Micronesia",
    "Moldova",
    "Monaco",
    "Mongolia",
    "Montenegro",
    "Morocco",
    "Mozambique",
    "Myanmar",
    "Namibia",
    "Nauru",
    "Nepal",
    "Netherlands",
    "New Zealand",
    "Nicaragua",
    "Niger",
    "Nigeria",
    "Norway",
    "Oman",
    "Pakistan",
    "Palau",
    "Panama",
    "Papua",
    "Paraguay",
    "Peru",
    "Philippines",
    "Poland",
    "Portugal",
    "Qatar",
    "Romania",
    "Russia",
    "Rwanda",
    "Samoa",
    "San Marino",
    "Sao Tome",
    "Saudi Arabia",
    "scotland",
    "scottish",
    "Senegal",
    "Serbia",
    "Seychelles",
    "Sierra Leone",
    "Singapore",
    "Slovakia",
    "Slovenia",
    "Solomon",
    "Somalia",
    "South Africa",
    "South Sudan",
    "Spain",
    "Sri Lanka",
    "St. Kitts",
    "St. Lucia",
    "St Kitts",
    "St Lucia",
    "Saint Kitts",
    "Santa Lucia",
    "Sudan",
    "Suriname",
    "Swaziland",
    "Sweden",
    "Switzerland",
    "Syria",
    "Taiwan",
    "Tajikistan",
    "Tanzania",
    "Thailand",
    "Tobago",
    "Togo",
    "Tonga",
    "Trinidad",
    "Tunisia",
    "Turkey",
    "Turkmenistan",
    "Tuvalu",
    "Uganda",
    "Ukraine",
    "United Kingdom",
    "United States",
    "Uruguay",
    "USA",
    "Uzbekistan",
    "Vanuatu",
    "Vatican",
    "Venezuela",
    "Vietnam",
    "wales",
    "welsh",
    "Yemen",
    "Zambia",
    "Zimbabwe",
    "manager",
    "organization",
    "senior"
  ],
  "stop_word_combination": [
    "fka:",
    "mmrl",
    "wis",
    "ihc",
    "llc",
    "hosp'l",
    "west",
    "depot",
    "east",
    "compy",
    "xii",
    "and",
    "central",
    "tulsa",
    "phy",
    "sys:",
    "fort",
    "sacred",
    "black",
    "weeks",
    "week",
    "weed",
    "weeds",
    "sales",
    "day",
    "days",
    "month",
    "months",
    "quarter",
    "quarters",
    "hour",
    "hours",
    "weekly",
    "monthly",
    "daily",
    "my",
    "sale",
    "share",
    "shared",
    "shares",
    "yoy",
    "pop",
    "18th",
    "run",
    "unit",
    "units",
    "now",
    "today",
    "purchase",
    "purchased",
    "high",
    "low",
    "higher",
    "lower",
    "for",
    "total",
    "spec hosp",
    "hosp llc",
    "speciality hosp",
    "speciality hospital",
    "hospital llc",
    "The System",
    "san cty",
    "cty san"
  ],
  "high_frequency_stop_words": [
    "and",
    "for",
    "of",
    "their",
    "with",
    "at",
    "into",
    "during",
    "to",
    "in",
    "on",
    "by",
    "about",
    "like",
    "over",
    "before",
    "between",
    "after",
    "above",
    "off",
    "along",
    "near",
    "count",
    "account",
    "accounts",
    "case",
    "cases",
    "district",
    "forest",
    "mount",
    "all",
    "community",
    "communities",
    "great",
    "greater",
    "district",
    "districts",
    "case",
    "vial",
    "cases",
    "Accounts",
    "Account",
    "Owner"
  ]
}