{
   "type":"index",
   "spec":{
      "dataSchema":{
         "dataSource":"exchange_rate",
         "parser":{
            "type":"string",
            "parseSpec":{
               "format":"tsv",
               "listDelimiter":"|",
               "dimensionsSpec":{
                  "dimensions":[
			"rate_type","currency","fiscal_period", "exchange_rate_planning_cycle","plan_cycle","flag_current"
				]
               },
               "timestampSpec":{
                  "format":"auto",
                  "column":"dt_full"
               },
		"hasHeaderRow":true
            }
         },
         "metricsSpec":[
            {
               "name":"exchange_rate_usd",
               "type":"doubleSum",
               "fieldName":"exchange_rate_usd"
            },
            {
               "name":"exchange_rate_eur",
               "type":"doubleSum",
               "fieldName":"exchange_rate_eur"
            }
         ],
         "granularitySpec":{
            "type":"uniform",
            "segmentGranularity":"day",
            "queryGranularity":"none",
            "intervals":[
               "2018-01-01/2020-12-31"
            ],
            "rollup":true
         }
      },
      "ioConfig":{
         "type":"index",
         "firehose":{
            "type":"local",
            "baseDir":"/opt/data/airflow/dags/emea_askensemble/datafiles/sourcefiles/exchange_rate",
            "filter":"*.csv"
         },
         "appendToExisting":false
      },
      "tuningConfig":{
         "type":"index",
         "targetPartitionSize":1000000000,
         "maxRowsInMemory":50000,
         "forceExtendableShardSpecs":true
      }
   }
}
