tag,user_id,user_email,user_group,user_role,company,region,district,territory,default_geography,territory_type,default_market,default_market_code,default_product,default_time_period,default_metric
ep,testfu2,testfu2@testfu.com,Home Office,Analyst,300,West,California,Fresno,Fresno,Territory,Angina,CARD01,,Current 13 Weeks,TRx
op,testfu3,testfu3@testfu.com,Admin,Admin,300,Southeast,Florida,Atlanta North,Florida,District,High Cholesterol,CARD02,,Current 13 Weeks,EU TRx
ec,testfu4,testfu4@testfu.com,Field User,Analyst,300,Mid-Central,LOUISVILLE,LOUISVILLE W,Mid-Central,Region,HIV Infections,AID01,,Current 13 Weeks,NRx
op,testfu7,testfu7@testfu.com,Field User,Analyst,300,Mid-Central,LOUISVILLE,LOUISVILLE W,Mid-Central,Region,HIV Infections,AID01,,Current 13 Weeks,NRx
oc,testfu9,testfu9@testfu.com,Field User,Analyst,300,Mid-Central,LOUISVILLE,LOUISVILLE W,Mid-Central,Region,HIV Infections,AID01,,Current 13 Weeks,NRx
op,testfu5,testfu5@testfu.com,Field User,Analyst,300,Mid-Central,LOUISVILLE,LOUISVILLE W,Mid-Central,Region,HIV Infections,AID01,,Current 13 Weeks,NRx
ec,testfu10,testfu10@testfu.com,Field User,Analyst,300,Mid-Central,LOUISVILLE,LOUISVILLE W,Mid-Central,Region,HIV Infections,AID01,,Current 13 Weeks,NRx
oc,testfu1,testfu1@testfu.com,Field User,Analyst,300,Mid-Central,LOUISVILLE,LOUISVILLE W,Mid-Central,Region,HIV Infections,AID01,,Current 13 Weeks,NRx
ec,testfu6,testfu6@testfu.com,Field User,Analyst,300,Mid-Central,LOUISVILLE,LOUISVILLE W,Mid-Central,Region,HIV Infections,AID01,,Current 13 Weeks,NRx
